{
  "id": 35,
  "name": "Warrior's Armor Shop",
  "currency": 995,
  "items": [
    {
      "id": 1155,
      "amount": 10
    },
    {
      "id": 1117,
      "amount": 10
    },
    {
      "id": 1075,
      "amount": 10
    },
    {
      "id": 1067,
      "amount": 10
    },
    {
      "id": 1153,
      "amount": 10
    },
    {
      "id": 1115,
      "amount": 10
    },
    {
      "id": 1157,
      "amount": 10
    },
    {
      "id": 1119,
      "amount": 10
    },
    {
      "id": 1069,
      "amount": 10
    },
    {
      "id": 1159,
      "amount": 10
    },
    {
      "id": 1121,
      "amount": 10
    },
    {
      "id": 1071,
      "amount": 10
    },
    {
      "id": 1161,
      "amount": 10
    },
    {
      "id": 1123,
      "amount": 10
    },
    {
      "id": 1073,
      "amount": 10
    },
    {
      "id": 1163,
      "amount": 10
    },
    {
      "id": 1127,
      "amount": 10
    },
    {
      "id": 1079,
      "amount": 10
    }
  ]
}