{
  "npcIds" : [5886],
  "drops" : [
    {
      "chance" : 1,
      "id" : 592
    },
    {
      "chance" : 1,
      "drops" : [
        {
          "chance" : 0.5,
          "id" : 1128,
          "min" : 2
        },
        {
          "chance" : 0.5,
          "id" : 1290,
          "min" : 3
        },
        {
          "chance" : 0.5,
          "id" : 1164,
          "min" : 3
        },
        {
          "chance" : 0.5,
          "id" : 1202,
          "min" : 3
        },
        {
          "chance" : 0.5,
          "id" : 1392,
          "min" : 10
        },
        {
          "chance" : 0.5,
          "id" : 1398,
          "min" : 6
        },
        {
          "chance" : 0.5,
          "id" : 1406,
          "min" : 2
        },
        {
          "chance" : 0.5,
          "id" : 3056,
          "min" : 2
        },
        {
          "chance" : 1,
          "id" : 7937,
          "min" : 600
        },
        {
          "chance" : 1,
          "id" : 454,
          "min" : 380,
          "max" : 420
        },
        {
          "chance" : 1,
          "id" : 1514,
          "min" : 51,
          "max" : 70
        },
        {
          "chance" : 0.5,
          "id" : 576,
          "min" : 47,
          "max" : 53
        },
        {
          "chance" : 0.5,
          "id" : 2364,
          "min" : 5
        },
        {
          "chance" : 0.5,
          "id" : 452,
          "min" : 6
        },
        {
          "chance" : 0.5,
          "id" : 214,
          "min" : 25
        },
        {
          "chance" : 0.5,
          "id" : 2486,
          "min" : 25
        },
        {
          "chance" : 0.5,
          "id" : 216,
          "min" : 25
        },
        {
          "chance" : 0.5,
          "id" : 218,
          "min" : 25
        },
        {
          "chance" : 0.5,
          "id" : 5321,
          "min" : 30
        },
        {
          "chance" : 0.5,
          "id" : 5300,
          "min" : 2
        },
        {
          "chance" : 0.5,
          "id" : 5304,
          "min" : 2
        },
        {
          "chance" : 0.5,
          "id" : 5295,
          "min" : 2
        },
        {
          "chance" : 0.5,
          "id" : 5288,
          "min" : 2
        },
        {
          "chance" : 0.5,
          "id" : 5289,
          "min" : 2
        },
        {
          "chance" : 0.5,
          "id" : 5313,
          "min" : 2
        },
        {
          "chance" : 0.5,
          "id" : 5314,
          "min" : 2
        },
        {
          "chance" : 0.25,
          "id" : 5315,
          "min" : 2
        },
        {
          "chance" : 0.25,
          "id" : 5316,
          "min" : 2
        },
        {
          "chance" : 0.25,
          "id" : 5317,
          "min" : 2
        },
        {
          "chance" : 1,
          "id" : 7055,
          "min" : 10
        },
        {
          "chance" : 0.5,
          "id" : 6688,
          "min" : 6
        },
        {
          "chance" : 0.5,
          "id" : 3025,
          "min" : 4
        },
        {
          "chance" : 1,
          "id" : 564,
          "min" : 350
        },
        {
          "chance" : 0.5,
          "id" : 563,
          "min" : 250
        },
        {
          "chance" : 0.5,
          "id" : 560,
          "min" : 300,
          "max" : 370
        },
        {
          "chance" : 0.5,
          "id" : 566,
          "min" : 225,
          "max" : 275
        },
        {
          "chance" : 0.5,
          "id" : 565,
          "min" : 160,
          "max" : 210
        },
        {
          "chance" : 0.25,
          "id" : 1438
        },
        {
          "chance" : 0.25,
          "id" : 1444
        },
        {
          "chance" : 0.25,
          "id" : 1442
        },
        {
          "chance" : 0.25,
          "id" : 1440
        },
        {
          "chance" : 0.25,
          "id" : 1452
        },
        {
          "chance" : 0.25,
          "id" : 1446
        },
        {
          "chance" : 0.25,
          "id" : 1462
        },
        {
          "chance" : 0.25,
          "id" : 1448
        },
        {
          "chance" : 0.25,
          "id" : 1454
        },
        {
          "chance" : 1,
          "id" : 995,
          "min" : 6000,
          "max" : 51989
        },
        {
          "chance" : 0.5,
          "id" : 9194,
          "min" : 10
        },
        {
          "chance" : 0.5,
          "id" : 1618,
          "min" : 15
        },
        {
          "chance" : 0.5,
          "id" : 5522,
          "min" : 25
        },
        {
          "chance" : 0.5,
          "id" : 1938,
          "min" : 254,
          "max" : 350
        },
        {
          "chance" : 0.5,
          "id" : 2,
          "min" : 300
        }
      ]
    },
    {
      "chance" : 0.05,
      "drops" : [
        {
          "chance" : 1,
          "id" : 4151
        },
        {
          "chance" : 0.05,
          "id" : 4705
        },
        {
          "chance" : 0.05,
          "id" : 13047
        },
        {
          "chance" : 0.05,
          "id" : 13045
        }
      ]
    }
  ]
}