{
  "npcIds" : [4540],
  "drops" : [
    {
      "chance" : 1,
      "id" : 526
    },
    {
      "chance" : 1,
      "drops" : [
        {
          "chance" : 1,
          "id" : 995,
          "min" : 5000,
          "max" : 75000
        },
        {
          "chance" : 1,
          "id" : 450,
          "min" : 15
        },
        {
          "chance" : 0.5,
          "id" : 452,
          "min" : 5
        },
        {
          "chance" : 0.25,
          "id" : 19428
        },
        {
          "chance" : 0.25,
          "id" : 19431
        },
        {
          "chance" : 0.25,
          "id" : 19434
        },
        {
          "chance" : 0.25,
          "id" : 19437
        },
        {
          "chance" : 0.25,
          "id" : 19440
        },
        {
          "chance" : 1,
          "id" : 868,
          "min" : 50
        },
        {
          "chance" : 1,
          "id" : 9144,
          "min" : 50
        },
        {
          "chance" : 1,
          "id" : 9238,
          "min" : 50
        },
        {
          "chance" : 1,
          "id" : 9239,
          "min" : 50
        },
        {
          "chance" : 1,
          "id" : 9240,
          "min" : 50
        },
        {
          "chance" : 1,
          "id" : 9241,
          "min" : 50
        },
        {
          "chance" : 1,
          "id" : 9242,
          "min" : 50
        }
      ]
    },
    {
      "chance" : 0.01,
      "drops" : [
        {
          "chance" : 1,
          "id" : 15501
        },
        {
          "chance" : 0.15,
          "id" : 20057
        },
        {
          "chance" : 0.15,
          "id" : 11988
        }
      ]
    }
  ]
}