{
  "npcIds" : [3057],
  "drops" : [
    {
      "chance" : 1,
      "drops" : [
        {
          "chance" : 1,
          "id" : 995,
          "min" : 200,
          "max" : 8000
        },
        {
          "chance" : 1,
          "id" : 6694,
          "min" : 5,
          "max" : 9
        },
        {
          "chance" : 1,
          "id" : 385,
          "max" : 3
        },
        {
          "chance" : 1,
          "id" : 2364
        },
        {
          "chance" : 1,
          "id" : 200,
          "min" : 2
        },
        {
          "chance" : 0.5,
          "id" : 212,
          "min" : 2
        },
        {
          "chance" : 0.5,
          "id" : 218
        },
        {
          "chance" : 0.5,
          "id" : 206,
          "min" : 2
        },
        {
          "chance" : 0.5,
          "id" : 210,
          "min" : 2
        },
        {
          "chance" : 0.5,
          "id" : 202,
          "min" : 2
        },
        {
          "chance" : 0.5,
          "id" : 208,
          "min" : 2
        },
        {
          "chance" : 0.5,
          "id" : 204,
          "min" : 2
        },
        {
          "chance" : 0.25,
          "id" : 216
        },
        {
          "chance" : 0.25,
          "id" : 214,
          "min" : 2
        },
        {
          "chance" : 0.5,
          "id" : 2486
        },
        {
          "chance" : 1,
          "id" : 1514,
          "min" : 5
        },
        {
          "chance" : 1,
          "id" : 163
        },
        {
          "chance" : 1,
          "id" : 565,
          "min" : 15
        },
        {
          "chance" : 1,
          "id" : 560,
          "min" : 20
        },
        {
          "chance" : 1,
          "id" : 5299
        },
        {
          "chance" : 0.5,
          "id" : 5294
        },
        {
          "chance" : 0.5,
          "id" : 5104
        },
        {
          "chance" : 0.5,
          "id" : 5100
        },
        {
          "chance" : 0.5,
          "id" : 5323
        },
        {
          "chance" : 0.5,
          "id" : 5321
        },
        {
          "chance" : 0.5,
          "id" : 5311
        },
        {
          "chance" : 0.25,
          "id" : 5298
        },
        {
          "chance" : 0.25,
          "id" : 5281
        },
        {
          "chance" : 0.25,
          "id" : 5280
        },
        {
          "chance" : 0.25,
          "id" : 5303
        },
        {
          "chance" : 0.25,
          "id" : 5297
        },
        {
          "chance" : 0.25,
          "id" : 5302
        },
        {
          "chance" : 0.25,
          "id" : 5314
        },
        {
          "chance" : 0.25,
          "id" : 5292
        },
        {
          "chance" : 0.25,
          "id" : 5106
        },
        {
          "chance" : 0.25,
          "id" : 5295
        },
        {
          "chance" : 0.25,
          "id" : 5300
        },
        {
          "chance" : 0.25,
          "id" : 12176
        },
        {
          "chance" : 0.25,
          "id" : 5293
        },
        {
          "chance" : 0.25,
          "id" : 5296
        },
        {
          "chance" : 0.25,
          "id" : 5105
        },
        {
          "chance" : 0.25,
          "id" : 5315
        },
        {
          "chance" : 1,
          "id" : 1445,
          "min" : 3
        },
        {
          "chance" : 0.25,
          "id" : 1438
        },
        {
          "chance" : 0.25,
          "id" : 1446
        },
        {
          "chance" : 0.25,
          "id" : 1452
        },
        {
          "chance" : 0.25,
          "id" : 1454
        },
        {
          "chance" : 0.25,
          "id" : 1440
        },
        {
          "chance" : 0.25,
          "id" : 1442
        },
        {
          "chance" : 0.25,
          "id" : 1448
        },
        {
          "chance" : 1,
          "id" : 1369
        },
        {
          "chance" : 0.25,
          "id" : 1373
        }
      ]
    },
    {
      "chance" : 0.005,
      "drops" : [
        {
          "chance" : 1.6,
          "id" : 15486
        },
        {
          "chance" : 0.1,
          "id" : 14004
        },
        {
          "chance" : 0.1,
          "id" : 14005
        },
        {
          "chance" : 0.1,
          "id" : 14006
        },
        {
          "chance" : 0.1,
          "id" : 14007
        }
      ]
    }
  ]
}