{
  "npcIds": [
    1158
  ],
  "drops": [
    {
      "chance": 1,
      "drops": [
        {
          "chance": 1,
          "id": 1113
        },
        {
          "chance": 0.8,
          "id": 3053
        },
        {
          "chance": 0.8,
          "id": 2501
        },
        {
          "chance": 0.4,
          "id": 5667,
          "min": 25
        },
        {
          "chance": 0.4,
          "id": 1392,
          "min": 10
        },
        {
          "chance": 1,
          "id": 7946,
          "min": 3
        },
        {
          "chance": 1,
          "id": 385,
          "min": 2
        },
        {
          "chance": 1,
          "id": 9743
        },
        {
          "chance": 1,
          "id": 169
        },
        {
          "chance": 1,
          "id": 183
        },
        {
          "chance": 0.8,
          "id": 7521,
          "min": 2
        },
        {
          "chance": 0.8,
          "id": 6685
        },
        {
          "chance": 0.8,
          "id": 3024
        },
        {
          "chance": 0.8,
          "id": 2434
        },
        {
          "chance": 0.8,
          "id": 3050,
          "min": 25
        },
        {
          "chance": 0.8,
          "id": 208,
          "min": 25
        },
        {
          "chance": 0.8,
          "id": 5321,
          "min": 25
        },
        {
          "chance": 0.8,
          "id": 5304,
          "min": 2
        },
        {
          "chance": 0.8,
          "id": 5316,
          "min": 2
        },
        {
          "chance": 0.4,
          "id": 3052,
          "min": 25
        },
        {
          "chance": 0.4,
          "id": 220,
          "min": 25
        },
        {
          "chance": 0.4,
          "id": 5288,
          "min": 2
        },
        {
          "chance": 0.4,
          "id": 5289,
          "min": 2
        },
        {
          "chance": 1,
          "id": 565,
          "min": 100
        },
        {
          "chance": 1,
          "id": 888,
          "min": 500
        },
        {
          "chance": 0.8,
          "id": 892,
          "min": 250
        },
        {
          "chance": 0.8,
          "id": 560,
          "min": 150
        },
        {
          "chance": 0.8,
          "id": 1620,
          "min": 25
        },
        {
          "chance": 0.8,
          "id": 1622,
          "min": 25
        },
        {
          "chance": 0.8,
          "id": 1618,
          "min": 25
        },
        {
          "chance": 1,
          "id": 246,
          "min": 60
        },
        {
          "chance": 1,
          "id": 3139,
          "min": 100
        },
        {
          "chance": 0.8,
          "id": 995,
          "min": 15000,
          "max": 20000
        },
        {
          "chance": 0.8,
          "id": 2364,
          "min": 3
        },
        {
          "chance": 0.8,
          "id": 1514,
          "min": 60
        },
        {
          "chance": 0.8,
          "id": 1988,
          "min": 100
        },
        {
          "chance": 0.8,
          "id": 1784,
          "min": 100
        },
        {
          "chance": 0.8,
          "id": 6017,
          "min": 10
        },
        {
          "chance": 0.8,
          "id": 445,
          "min": 250
        },
        {
          "chance": 0.8,
          "id": 5941,
          "min": 5
        }
      ]
    },
    {
      "chance" : 0.05,
      "drops" : [
        {
          "chance" : 0.2,
          "id" : 11993
        },
        {
          "chance" : 0.9,
          "id" : 14479
        },
        {
          "chance" : 1,
          "id" : 2513
        },
        {
          "chance" : 1,
          "id" : 4087
        },
        {
          "chance" : 1,
          "id" : 11732
        },
        {
          "chance" : 0.9,
          "id" : 11335
        }
      ]
    }
  ]
}