{
  "npcIds" : [50],
  "drops" : [
    {
      "chance" : 1,
      "id" : 536
    },
    {
      "chance" : 1,
      "id" : 1747,
      "min" : 2
    },
    {
      "chance" : 1,
      "drops" : [
        {
          "chance" : 1,
          "id" : 1303
        },
        {
          "chance" : 1,
          "id" : 1123
        },
        {
          "chance" : 0.25,
          "id" : 1199
        },
        {
          "chance" : 0.15,
          "id" : 1149
        },
        {
          "chance" : 1,
          "id" : 554,
          "min" : 300
        },
        {
          "chance" : 1,
          "id" : 556,
          "min" : 300
        },
        {
          "chance" : 1,
          "id" : 565,
          "min" : 30
        },
        {
          "chance" : 1,
          "id" : 884,
          "min" : 690
        },
        {
          "chance" : 0.25,
          "id" : 563,
          "min" : 30
        },
        {
          "chance" : 0.25,
          "id" : 9144,
          "min" : 10,
          "max" : 25
        },
        {
          "chance" : 0.25,
          "id" : 11232,
          "min" : 5,
          "max" : 14
        },
        {
          "chance" : 0.25,
          "id" : 11237,
          "min" : 5,
          "max" : 14
        },
        {
          "chance" : 1,
          "id" : 1731
        },
        {
          "chance" : 1,
          "id" : 1516,
          "min" : 150
        },
        {
          "chance" : 0.25,
          "id" : 385,
          "min" : 4
        },
        {
          "chance" : 0.25,
          "id" : 445,
          "min" : 100
        },
        {
          "chance" : 0.25,
          "id" : 9431
        },
        {
          "chance" : 0.25,
          "id" : 2363
        },
        {
          "chance" : 0.25,
          "id" : 2361,
          "min" : 3
        }
      ]
    },
    {
      "chance" : 0.01,
      "drops" : [
        {
          "chance" : 0.25,
          "id" : 15259
        },
        {
          "chance" : 1,
          "id" : 11286
        },
        {
          "chance" : 0.10,
          "id" : 11613
        }
      ]
    }
  ]
}