{
  "npcIds" : [3052, 8549],
  "drops" : [
    {
      "chance" : 1,
      "id" : 592
    },
    {
      "chance" : 1,
      "id" : 14616,
      "min" : 5
    },
    {
      "chance" : 1,
      "drops" : [
        {
          "chance" : 1,
          "id" : 1512,
          "min" : 20,
          "max" : 50
        },
        {
          "chance" : 1,
          "id" : 1522,
          "min" : 15,
          "max" : 45
        },
        {
          "chance" : 1,
          "id" : 1520,
          "min" : 10,
          "max" : 35
        },
        {
          "chance" : 1,
          "id" : 1518,
          "min" : 5,
          "max" : 30
        },
        {
          "chance" : 1,
          "id" : 1516,
          "min" : 5,
          "max" : 20
        },
        {
          "chance" : 1,
          "id" : 1514,
          "min" : 5,
          "max" : 15
        },
        {
          "chance" : 1,
          "id" : 1073
        },
        {
          "chance" : 1,
          "id" : 1123
        },
        {
          "chance" : 1,
          "id" : 1161
        },
        {
          "chance" : 0.5,
          "id" : 1079
        },
        {
          "chance" : 0.5,
          "id" : 1127
        },
        {
          "chance" : 0.5,
          "id" : 1163
        },
        {
          "chance" : 0.5,
          "id" : 1619
        },
        {
          "chance" : 0.5,
          "id" : 2453,
          "min" : 10
        },
        {
          "chance" : 0.5,
          "id" : 1442
        },
        {
          "chance" : 0.5,
          "id" : 554,
          "min" : 200,
          "max" : 750
        },
        {
          "chance" : 0.25,
          "id" : 2366
        },
        {
          "chance" : 0.25,
          "id" : 2368
        }
      ]
    },
    {
      "chance" : 0.005,
      "drops" : [
        {
          "chance" : 1,
          "id" : 13661
        },
        {
          "chance" : 0.2,
          "id" : 20059
        },
        {
          "chance" : 0.2,
          "id" : 11989
        }
      ]
    }
  ]

}