{
  "npcIds" : [2000],
  "drops" : [
    {
      "chance" : 1,
      "drops" : [
        {
          "chance" : 1,
          "id" : 1275
        },
        {
          "chance" : 0.5,
          "id" : 9243,
          "min" : 100
        },
        {
          "chance" : 0.5,
          "id" : 1319
        },
        {
          "chance" : 0.5,
          "id" : 868,
          "min" : 60
        },
        {
          "chance" : 1,
          "id" : 562,
          "min" : 400
        },
        {
          "chance" : 1,
          "id" : 560,
          "min" : 300
        },
        {
          "chance" : 1,
          "id" : 565,
          "min" : 200
        },
        {
          "chance" : 1,
          "id" : 1620,
          "min" : 20
        },
        {
          "chance" : 1,
          "id" : 1618,
          "min" : 10
        },
        {
          "chance" : 0.5,
          "id" : 6035,
          "min" : 100
        },
        {
          "chance" : 0.5,
          "id" : 238,
          "min" : 100
        },
        {
          "chance" : 0.5,
          "id" : 224,
          "min" : 500
        },
        {
          "chance" : 0.5,
          "id" : 445,
          "min" : 300
        },
        {
          "chance" : 0.5,
          "id" : 2,
          "min" : 250
        },
        {
          "chance" : 0.5,
          "id" : 1514,
          "min" : 100
        },
        {
          "chance" : 0.25,
          "id" : 226,
          "min" : 50
        },
        {
          "chance" : 0.25,
          "id" : 1632
        },
        {
          "chance" : 0.25,
          "id" : 5315
        },
        {
          "chance" : 0.25,
          "id" : 5316
        },
        {
          "chance" : 0.25,
          "id" : 5289
        },
        {
          "chance" : 0.25,
          "id" : 3052,
          "min" : 100
        },
        {
          "chance" : 1,
          "id" : 3024,
          "min" : 3
        },
        {
          "chance" : 1,
          "id" : 995,
          "min" : 15000,
          "max" : 20000
        },
        {
          "chance" : 0.25,
          "id" : 9194,
          "min" : 60
        }
      ]
    },
    {
      "chance" : 0.01,
      "drops" : [
        {
          "chance" : 1,
          "id" : 15259
        },
        {
          "chance" : 1,
          "id" : 7158
        },
        {
          "chance" : 0.25,
          "id" : 12605
        }
      ]
    }
  ]
}