{
  "npcIds" : [2042, 2043, 2044],
  "drops" : [
    {
      "chance" : 1,
      "drops" : [
        {
          "chance" : 0.1,
          "id" : 1149
        },
        {
          "chance" : 0.1,
          "id" : 3204
        },
        {
          "chance" : 1,
          "id" : 563,
          "min" : 200
        },
        {
          "chance" : 0.25,
          "id" : 560,
          "min" : 300
        },
        {
          "chance" : 0.25,
          "id" : 562,
          "min" : 500
        },
        {
          "chance" : 0.25,
          "id" : 7937,
          "min" : 1500
        },
        {
          "chance" : 0.1,
          "id" : 2999,
          "min" : 25
        },
        {
          "chance" : 0.1,
          "id" : 3001,
          "min" : 10
        },
        {
          "chance" : 0.1,
          "id" : 268,
          "min" : 30
        },
        {
          "chance" : 1,
          "id" : 1780,
          "min" : 1000
        },
        {
          "chance" : 1,
          "id" : 6290,
          "min" : 35
        },
        {
          "chance" : 1,
          "id" : 9193,
          "min" : 12
        },
        {
          "chance" : 1,
          "id" : 1516,
          "min" : 35
        },
        {
          "chance" : 0.25,
          "id" : 8836,
          "min" : 50
        },
        {
          "chance" : 0.25,
          "id" : 454,
          "min" : 200
        },
        {
          "chance" : 0.25,
          "id" : 452,
          "min" : 2
        }
      ]
    },
    {
      "chance" : 0.016,
      "drops" : [
        {
          "chance" : 0.2,
          "id" : 12926
        },
        {
          "chance" : 0.2,
          "id" : 12282
        },
        {
          "chance" : 0.2,
          "id" : 12278
        },
        {
          "chance" : 1,
          "id" : 6571
        }
      ]
    }
  ]
}